4 Productos de Estados y Tendencias de eBird – Curso ROC: Análisis de datos de eBird en R
…
species_list <- c("cthhue1", "chipig2", "chimoc1", "grbfir1", "chutap1", 
                  "pattyr2", "strwoo6", "chifli1", "thtray1", "auspar1")

# download data for this list of species
for (i in 1:length(species_list)){
  ebirdst_download_status(species_list[i], path = "data/ebirdst-data/", pattern = "proportion-population_seasonal_mean_9km")
}

# add common names, migrant/resident status, and quality
species_list <- filter(ebirdst_runs, species_code %in% species_list) %>% 
  mutate(quality = ifelse(is_resident, resident_quality, breeding_quality)) %>% 
  select(species_code, common_name, is_resident, quality)
print(species_list)
#> # A tibble: 10 × 4
#>   species_code common_name                 is_resident quality
#>   <chr>        <chr>                       <lgl>       <chr>  
#> 1 auspar1      Austral Parakeet            TRUE        3      
#> 2 chifli1      Chilean Flicker             TRUE        3      
#> 3 chimoc1      Chilean Mockingbird         TRUE        3      
#> 4 chipig2      Chilean Pigeon              FALSE       3      
#> 5 chutap1      Chucao Tapaculo             TRUE        3      
#> 6 cthhue1      Chestnut-throated Huet-huet TRUE        2      
#> # ℹ 4 more rows
…
