2 Best Practices for using eBird Data – Curso ROC: Análisis de datos de eBird utilizando R
…
Checkpoint

Tómate un tiempo para explorar las variables en el conjunto de datos de observación. Observa que el EBD duplica muchas de las variables a nivel de lista del SED.

Cuando leemos los datos en R, usamos unique = FALSE y rollup = FALSE. Por defecto, las funciones de lectura en el paquete auk realizan dos pasos importantes de preprocesamiento: combinar listas compartidas duplicadas y consolidación taxonómica. Intencionalmente desactivamos esta funcionalidad con fines demostrativos.

2.2.1 Listas compartidas

eBird permite a los usuarios compartir listas de verificación con otros observadores de su grupo, por ejemplo, esta lista es compartida por 10 observadores. Estas listas se pueden identificar mirando la variable group_identifier, que asigna un ID que conecta todas las listas del grupo.

checklists %>%  # colocamos el objeto con el que queremos trabajar, en este caso la base de datos de los listados
  filter(!is.na(group_identifier)) %>% # filtramos para quedarnos solo con las filas que presenten un ID de grupo 
  arrange(group_identifier) %>% # ordenamos las filas filtradas de menor a mayor, esto facilita la observación 
  select(sampling_event_identifier, group_identifier) # seleccionamos solo las columnas 'sampling_event_identifier' y 'group_identifier' para reducir la información a lo que necesitamos
#> # A tibble: 59,623 × 2
#>   sampling_event_identifier group_identifier
#>   <chr>                     <chr>           
#> 1 S133813900                G10000814       
#> 2 S133813899                G10000814       
#> 3 S133818644                G10001020       
#> 4 S133818643                G10001020       
#> 5 S133827106                G10001448       
#> 6 S133962903                G10001448       
#> # ℹ 59,617 more rows
…
La variable observation_count tiene conteos verdaderos así como también “X”, estas indican que la especie fue detectada pero no se contó el número de individuos. auk_zerofill() agrega una nueva columna binaria, species_observed, indicando si la especie fue detectada o no.

select(zf, observation_count, species_observed) %>% 
  head(10) # observamos los primero 10 valores de las columnas con conteos y si se detectó la especie o no
#> # A tibble: 10 × 2
#>   observation_count species_observed
#>   <chr>             <lgl>           
#> 1 0                 FALSE           
#> 2 0                 FALSE           
#> 3 0                 FALSE           
#> 4 0                 FALSE           
#> 5 0                 FALSE           
#> 6 0                 FALSE           
#> # ℹ 4 more rows

Convirtamos las “X” en NAs y transformemos observation_count en una variable entera.

zf$observation_count <- if_else(zf$observation_count == "X", 
                                NA_character_, zf$observation_count) %>% 
  as.integer()
select(zf, observation_count, species_observed) %>% 
  head(10)
#> # A tibble: 10 × 2
#>   observation_count species_observed
#>               <int> <lgl>           
#> 1                 0 FALSE           
#> 2                 0 FALSE           
#> 3                 0 FALSE           
#> 4                 0 FALSE           
#> 5                 0 FALSE           
#> 6                 0 FALSE           
#> # ℹ 4 more rows
…
2.5.2 Conversión a formato espacial {#sec-ebird-appli = ions-spatial}

Muchas aplicaciones de datos de eBird requieren convertir los datos en un formato explícitamente espacial, por ejemplo, para hacer un mapa o filtrar las observaciones solo a aquellas dentro de un polígono para un área protegida. El paquete de R sf se puede usar para representar puntos, líneas y polígonos espaciales en R. Podemos convertir el data frame de las listas a un objeto sf usando la latitud y longitud.

checklists_sf <- st_as_sf(checklists_zf, coords = c("longitude", "latitude"),
                          # 4326 is the code for an unprojected lon/lat
                          # coordiante reference system
                          crs = 4326)
print(checklists_sf)
#> Simple feature collection with 75362 features and 9 fields
#> Geometry type: POINT
#> Dimension:     XY
#> Bounding box:  xmin: -75.3 ymin: -43.8 xmax: -71.7 ymax: -40.2
#> Geodetic CRS:  WGS 84
#> # A tibble: 75,362 × 10
#>   checklist_id observation_date time_observations_started observation_type
#> * <chr>        <date>           <chr>                     <chr>           
#> 1 S118804608   2019-01-24       10:00:00                  Traveling       
#> 2 S116936975   2019-02-16       17:08:00                  Stationary      
#> 3 S116936842   2019-02-13       10:04:00                  Stationary      
#> 4 S59435786    2019-09-01       15:09:00                  Traveling       
#> 5 S58442786    2019-07-25       13:47:00                  Traveling       
#> 6 S62449405    2019-12-18       16:40:00                  Stationary      
#> # ℹ 75,356 more rows
#> # ℹ 6 more variables: duration_minutes <int>, effort_distance_km <dbl>,
#> #   number_observers <int>, observation_count <int>, species_observed <lgl>,
#> #   geometry <POINT [°]>
…
